{
  "type": "service_account",
  "project_id": "community-health-care-uop",
  "private_key_id": "3b2bad40def87a5cdecec97b1a066b9888e73e0c",
  "private_key": "-----BEGIN PRIVATE KEY-----\nMIIEvQIBADANBgkqhkiG9w0BAQEFAASCBKcwggSjAgEAAoIBAQCnfUQ1XCc6B9u1\nW4lY3IYqJURBxzZIk/Q6XWBtCeZjjfI4+k7ndBIgAMbCJcSPAYeiM7gN7XrK1mOk\nfXjGsbWpVJj/en2Co6NmDGetxUBSdX0lpCz540jHG87TuISfQ3T3jFD27bfHu2fC\nUkE+xT6NTBgj5tDDLiLy4NMLcqgaBbM6c8CMIgeUXzVsXs7t8KwPVRpjiMFvCxMB\nkxtacoW0pK2jG2q6nO9q6zypR5OQrvZqA0uCIjS+F7v9Kn7GX9edXm7Q0UWgVM71\nvuG6t0s1pm/YsGz6Q1RXd0YP93XveEsA+n28iZaiUD/9VQr/oaGU32Cykl9LQSnu\ne0IlKuMpAgMBAAECggEALfx839G/i3Vg47iQS2+w/p1g0laqFt9YrTW6JfYT5b2x\nhedkBrSdzV+pMuE/yKv425YrsNdFYa/fh+hTYuqkICv0HiE5mMbpNDmvtcx0zq8n\nf1BGcQ3wi4qdDRCaiUfyM425JTM7xIE2Ceqfs2ZguFbuQd078HsYaWtFRt1iPlJk\ndLzr+qo/eX1qcV4liTd/+oWtkxThJyolq/ifrRpu4H0ad4Ltnp1JzfA7CplYrRFV\nBWK3Whvn3fQWp2BnxNVOKd6yBfS+XrBfgjuw9/mV87J3BBFwPGVyNmojBi7p1F/w\n1GgltSR2DZOucL6rtceBhWatuaHsqJIQFWRde0ATSQKBgQDar/rsesnnk1+F6//l\noOEDXuqu23Na+lOIXs3PXTxJHHi2VygLfTno2QGla9E/+frn4KFQQV4xK4X3Qg1/\n+xrRZaoPHvIBRdPCc0jYf3y9dUeEWUStaKRuEdRznrZB/SvhfcjFSmD7nPHysfn4\n7gzxvcCeyLKgrZi/tdlva6AOTwKBgQDEEQLR2q5Wo6D2oAgV5brvQSptABiG3URD\nRY0piQhtGGKrWCp/6VIsy2rX0ZZ9YbGNNA2a5XBqqcKO7qDVocwGJNsZ41e1Nbsm\nI1KQu9UlG6xrE9vLqgKfMjJv35mUpJ9d3rArCj4SPg1oO/JEros4v2pJYNhJGBW5\nwfkM6yTRBwKBgBFhtWcAZ3Xhj9EcLe25eMkEzVByntuXU/Zd2qvltDn3alzL1qH7\nJRQt02Sriik0nE272/Z+C5eK5w39EQegFMSZ+QdUpVWWkDs/YIXctDR20uVhFwVV\ncORSxHkgH0plbgxxK/kKbWTyV4S7wquXeC3qsBmuyAvfYGm0cYDapBEfAoGAb74e\nNEoEyF4Tc9u7H/fBNXCXZG4EjIB40jpGfKCby8l1GqByAFqSufLpHr1VnnnaPlan\nVltjWXcM6nc39Ol0pR/GO5flOeK4mcDR4qkajj6aYqB7yTRIsEBknHv8RMoaBd7P\n2ofI3o69B2X66ofr0tjNE6r9OZNfdnIFpgYyAmsCgYEAiwheW9lTl2Lp48njYW8v\nQvNsLTN/3a6cKEcuLHqQTgLrBnJoFz3qOC2g1I8qVBUg60fFe/UYrfoPTyE4+l+G\nQFvjvIzW51wbk05SDThYlw2A1wDaj4WjbSwzf/7NFvfC74kHb3fv3vbTvdOJZgXq\nKvBJMr3SaVYJjK/Y0upmOG0=\n-----END PRIVATE KEY-----\n",
  "client_email": "firebase-adminsdk-pzmuj@community-health-care-uop.iam.gserviceaccount.com",
  "client_id": "108955645141818032819",
  "auth_uri": "https://accounts.google.com/o/oauth2/auth",
  "token_uri": "https://oauth2.googleapis.com/token",
  "auth_provider_x509_cert_url": "https://www.googleapis.com/oauth2/v1/certs",
  "client_x509_cert_url": "https://www.googleapis.com/robot/v1/metadata/x509/firebase-adminsdk-pzmuj%40community-health-care-uop.iam.gserviceaccount.com",
  "universe_domain": "googleapis.com"
}
